Work with dates and times • vegawidget
…
Issue

Things happen at fixed instants in time; we use time zones to describe those fixed instants using a local context. Consider that Neil Armstrong’s first step on the moon happened at 1969-07-21T02:56:15Z, represented here as an ISO-8601 string. This uses UTC, the globally-recognized standard reference-frame; ISO-8601 is the standard way to communicate time-stamps. However, this information lacks context for someone who may remember the instant from Chicago, or another who may remember the same instant from Paris.

In the context of Chicago, the first-step happened at 1969-07-20 21:56:15; in the context of Paris, it happened at 1969-07-21 03:56:15. We use a system of time zones to provide this context. The standard representation of time zones is IANA (also known as Olson) time zones. These are each associated with a given geographic region, such as "America/Chicago" or "Europe/Paris"; a time zone provides an offset to UTC, given an instant expressed in UTC.

High level-programming languages, such as R, have access to the full IANA time-zone database. However, the JavaScript Date object has access to only two time zones: the timezone of the local browser, and UTC. JavaScript-based visualization systems, including d3, Plotly, and Vega, are constrained by this limitation because they depend on the JavaScript Date object.

Vega-Lite examples

Let’s look at an example using one of the datasets included in this package: data_seattle_hourly, adapted from vega-datasets:

data_seattle_hourly

## # A tibble: 8,759 x 2
##    date                 temp
##    <dttm>              <dbl>
##  1 2010-01-01 00:00:00  39.4
##  2 2010-01-01 01:00:00  39.2
##  3 2010-01-01 02:00:00  39.0
##  4 2010-01-01 03:00:00  38.9
##  5 2010-01-01 04:00:00  38.8
##  6 2010-01-01 05:00:00  38.7
##  7 2010-01-01 06:00:00  38.7
##  8 2010-01-01 07:00:00  38.6
##  9 2010-01-01 08:00:00  38.7
## 10 2010-01-01 09:00:00  39.2
## # ... with 8,749 more rows
…
Here, we do not (yet) have this option. If we serialize datetime data using the ISO-8601 format, the instants are parsed and interpreted correctly. However, we have the option to display using only the timezone of the browser or UTC. It is entirely like that the context (time zone) of our data is different from the context of our browser - in which case we are unable to make an effective visualization.

Faced with this choice, it seems the first option – serializing our data using the data’s local time-zone – is the least-bad option, as it gives us the opportunity to present the data in context. That being said, we need to be mindful of the daylight-saving pitfalls, and warn our users accordingly. Further, we have to recognize (and possibly note to our users) that the data inside the visualization is compromised.

Notes on dates

In R, we have different types for date vs. datetimes. This seems a useful distinction, as it allows us to compare a day in New York with a day in Brisbane.

When designing a Vega visualization, we have a “trick” we can use to treat all dates regardless of time zone: we can treat dates as the datetime at the start of that day in UTC. Vega parsing rule for datetimes is that if the data is formatted using ISO-8601, then it is parsed as UTC.

Let’s consider the dataset data_seattle_daily, where we have daily observations of Seattle weather over the course of four years:

data_seattle_daily

## # A tibble: 1,461 x 6
##    date       precipitation temp_max temp_min  wind weather
##    <date>             <dbl>    <dbl>    <dbl> <dbl> <chr>  
##  1 2012-01-01         0.       12.8     5.00   4.70 drizzle
##  2 2012-01-02        10.9      10.6     2.80   4.50 rain   
##  3 2012-01-03         0.800    11.7     7.20   2.30 rain   
##  4 2012-01-04        20.3      12.2     5.60   4.70 rain   
##  5 2012-01-05         1.30      8.90    2.80   6.10 rain   
##  6 2012-01-06         2.50      4.40    2.20   2.20 rain   
##  7 2012-01-07         0.        7.20    2.80   2.30 rain   
##  8 2012-01-08         0.       10.0     2.80   2.00 sun    
##  9 2012-01-09         4.30      9.40    5.00   3.40 rain   
## 10 2012-01-10         1.00      6.10    0.600  3.40 rain   
## # ... with 1,451 more rows
…
